2020-07-14 02:32:57: "Profile directory: /home/navtey/.config/joplin"
2020-07-14 02:33:02: "KeychainService: checking if keychain supported"
2020-07-14 02:33:02: "KeychainService: could not set test password - keychain support will be disabled"
2020-07-14 02:33:02: "Client ID: 1f65e4daabc44c23a8fe8c9dabf7705b"
2020-07-14 02:33:02: "First start: detected locale as en_US"
2020-07-14 02:33:02: "Trying to load 0 master keys..."
2020-07-14 02:33:02: "Loaded master keys: 0"
2020-07-14 02:33:02: "ResourceFetcher: Auto-add resources: Mode: always"
2020-07-14 02:33:02: "ResourceFetcher: Auto-added resources: 0"
2020-07-14 02:33:02: "Running migration: 20"
2020-07-14 02:33:02: "Running migration: 27"
2020-07-14 02:33:02: "Trying to load 0 master keys..."
2020-07-14 02:33:02: "Loaded master keys: 0"
2020-07-14 02:33:02: "Scheduling sync operation...", "10000"
2020-07-14 02:33:02: "Trying to load 0 master keys..."
2020-07-14 02:33:02: "Loaded master keys: 0"
2020-07-14 02:33:02: "Scheduling sync operation...", "10000"
2020-07-14 02:33:02: "Trying to load 0 master keys..."
2020-07-14 02:33:02: "Loaded master keys: 0"
2020-07-14 02:33:02: "Scheduling sync operation...", "10000"
2020-07-14 02:33:02: "RevisionService::runInBackground: Starting background service with revision collection interval 600000"
2020-07-14 02:33:03: "DecryptionWorker: cannot start because no master key is currently loaded."
2020-07-14 02:33:06: "RevisionService::maintenance: Starting..."
2020-07-14 02:33:06: "RevisionService::maintenance: Service is enabled"
2020-07-14 02:33:06: "RevisionService::collectRevisions: Created revisions for 0 notes"
2020-07-14 02:33:06: "RevisionService::maintenance: Done in 108ms"
2020-07-14 02:33:12: "SearchEngine: Updating FTS table..."
